EESchema Schematic File Version 4
EELAYER 30 0
EELAYER END
$Descr A4 11693 8268
encoding utf-8
Sheet 4 4
Title ""
Date ""
Rev ""
Comp ""
Comment1 ""
Comment2 ""
Comment3 ""
Comment4 ""
$EndDescr
Text Notes 7500 7500 0    50   ~ 0
Fortune Skosana LED Status indicator
Text Notes 8200 7650 0    50   ~ 0
4 June 2021
$Comp
L Device:R R7
U 1 1 60BA3656
P 2350 2150
F 0 "R7" H 2420 2196 50  0000 L CNN
F 1 "470" H 2420 2105 50  0000 L CNN
F 2 "Resistor_THT:R_Axial_DIN0204_L3.6mm_D1.6mm_P1.90mm_Vertical" V 2280 2150 50  0001 C CNN
F 3 "~" H 2350 2150 50  0001 C CNN
	1    2350 2150
	1    0    0    -1  
$EndComp
$Comp
L Device:R R8
U 1 1 60BA3ADE
P 2650 2150
F 0 "R8" H 2720 2196 50  0000 L CNN
F 1 "390" H 2720 2105 50  0000 L CNN
F 2 "Resistor_THT:R_Axial_DIN0204_L3.6mm_D1.6mm_P1.90mm_Vertical" V 2580 2150 50  0001 C CNN
F 3 "~" H 2650 2150 50  0001 C CNN
	1    2650 2150
	1    0    0    -1  
$EndComp
$Comp
L Device:R R9
U 1 1 60BA3E43
P 2900 2150
F 0 "R9" H 2970 2196 50  0000 L CNN
F 1 "330" H 2970 2105 50  0000 L CNN
F 2 "Resistor_THT:R_Axial_DIN0204_L3.6mm_D1.6mm_P1.90mm_Vertical" V 2830 2150 50  0001 C CNN
F 3 "~" H 2900 2150 50  0001 C CNN
	1    2900 2150
	1    0    0    -1  
$EndComp
$Comp
L Device:R R10
U 1 1 60BA4388
P 3150 2150
F 0 "R10" H 3220 2196 50  0000 L CNN
F 1 "220" H 3220 2105 50  0000 L CNN
F 2 "Resistor_THT:R_Axial_DIN0204_L3.6mm_D1.6mm_P1.90mm_Vertical" V 3080 2150 50  0001 C CNN
F 3 "~" H 3150 2150 50  0001 C CNN
	1    3150 2150
	1    0    0    -1  
$EndComp
$Comp
L Device:R R11
U 1 1 60BA46AD
P 3450 2150
F 0 "R11" H 3520 2196 50  0000 L CNN
F 1 "100" H 3520 2105 50  0000 L CNN
F 2 "Resistor_THT:R_Axial_DIN0204_L3.6mm_D1.6mm_P1.90mm_Vertical" V 3380 2150 50  0001 C CNN
F 3 "~" H 3450 2150 50  0001 C CNN
	1    3450 2150
	1    0    0    -1  
$EndComp
$Comp
L Diode:1N47xxA D1
U 1 1 60BA4C93
P 2350 1700
F 0 "D1" V 2304 1780 50  0000 L CNN
F 1 "2.4" V 2395 1780 50  0000 L CNN
F 2 "Diode_THT:D_DO-41_SOD81_P7.62mm_Horizontal" H 2350 1525 50  0001 C CNN
F 3 "https://www.vishay.com/docs/85816/1n4728a.pdf" H 2350 1700 50  0001 C CNN
	1    2350 1700
	0    1    1    0   
$EndComp
$Comp
L Diode:1N47xxA D3
U 1 1 60BA562D
P 2650 1700
F 0 "D3" V 2604 1780 50  0000 L CNN
F 1 "4.8" V 2695 1780 50  0000 L CNN
F 2 "Diode_THT:D_DO-41_SOD81_P10.16mm_Horizontal" H 2650 1525 50  0001 C CNN
F 3 "https://www.vishay.com/docs/85816/1n4728a.pdf" H 2650 1700 50  0001 C CNN
	1    2650 1700
	0    1    1    0   
$EndComp
$Comp
L Diode:1N47xxA D5
U 1 1 60BA5AF5
P 2900 1700
F 0 "D5" V 2854 1780 50  0000 L CNN
F 1 "7.2" V 2945 1780 50  0000 L CNN
F 2 "Diode_THT:D_DO-41_SOD81_P10.16mm_Horizontal" H 2900 1525 50  0001 C CNN
F 3 "https://www.vishay.com/docs/85816/1n4728a.pdf" H 2900 1700 50  0001 C CNN
	1    2900 1700
	0    1    1    0   
$EndComp
$Comp
L Diode:1N47xxA D7
U 1 1 60BA6787
P 3150 1700
F 0 "D7" V 3104 1780 50  0000 L CNN
F 1 "9.6" V 3195 1780 50  0000 L CNN
F 2 "Diode_THT:D_DO-41_SOD81_P10.16mm_Horizontal" H 3150 1525 50  0001 C CNN
F 3 "https://www.vishay.com/docs/85816/1n4728a.pdf" H 3150 1700 50  0001 C CNN
	1    3150 1700
	0    1    1    0   
$EndComp
$Comp
L Diode:1N47xxA D9
U 1 1 60BA7031
P 3450 1700
F 0 "D9" V 3404 1780 50  0000 L CNN
F 1 "11" V 3495 1780 50  0000 L CNN
F 2 "Diode_THT:D_DO-41_SOD81_P10.16mm_Horizontal" H 3450 1525 50  0001 C CNN
F 3 "https://www.vishay.com/docs/85816/1n4728a.pdf" H 3450 1700 50  0001 C CNN
	1    3450 1700
	0    1    1    0   
$EndComp
$Comp
L Device:LED D2
U 1 1 60BA7732
P 2350 2600
F 0 "D2" V 2389 2482 50  0000 R CNN
F 1 "90" V 2298 2482 50  0000 R CNN
F 2 "LED_THT:LED_D1.8mm_W3.3mm_H2.4mm" H 2350 2600 50  0001 C CNN
F 3 "~" H 2350 2600 50  0001 C CNN
	1    2350 2600
	0    -1   -1   0   
$EndComp
$Comp
L Device:LED D4
U 1 1 60BA7ACD
P 2650 2600
F 0 "D4" V 2700 2500 50  0000 C CNN
F 1 "100" V 2600 2500 50  0000 C CNN
F 2 "LED_THT:LED_D1.8mm_W3.3mm_H2.4mm" H 2650 2600 50  0001 C CNN
F 3 "~" H 2650 2600 50  0001 C CNN
	1    2650 2600
	0    -1   -1   0   
$EndComp
$Comp
L Device:LED D10
U 1 1 60BA7BD3
P 3450 2600
F 0 "D10" V 3500 2500 50  0000 R CNN
F 1 "175" V 3400 2550 50  0000 R CNN
F 2 "LED_THT:LED_D1.8mm_W3.3mm_H2.4mm" H 3450 2600 50  0001 C CNN
F 3 "~" H 3450 2600 50  0001 C CNN
	1    3450 2600
	0    -1   -1   0   
$EndComp
$Comp
L Device:LED D6
U 1 1 60BA9558
P 2900 2600
F 0 "D6" V 2950 2550 50  0000 R CNN
F 1 "100" V 2850 2550 50  0000 R CNN
F 2 "LED_THT:LED_D1.8mm_W3.3mm_H2.4mm" H 2900 2600 50  0001 C CNN
F 3 "~" H 2900 2600 50  0001 C CNN
	1    2900 2600
	0    -1   -1   0   
$EndComp
Wire Wire Line
	2000 2750 2350 2750
Connection ~ 2350 2750
Wire Wire Line
	2350 2750 2650 2750
Connection ~ 2650 2750
Wire Wire Line
	2650 2750 2900 2750
Connection ~ 2900 2750
Wire Wire Line
	2000 1950 2000 1550
Wire Wire Line
	2900 1550 3150 1550
Connection ~ 3150 1550
Wire Wire Line
	3150 1550 3450 1550
Wire Wire Line
	2000 1550 2350 1550
Connection ~ 2900 1550
Connection ~ 2350 1550
Wire Wire Line
	2350 1550 2650 1550
Connection ~ 2650 1550
Wire Wire Line
	2650 1550 2900 1550
Wire Wire Line
	2350 1850 2350 2000
Wire Wire Line
	2350 2300 2350 2450
Wire Wire Line
	2650 1850 2650 2000
Wire Wire Line
	2650 2300 2650 2450
Wire Wire Line
	2900 1850 2900 2000
Wire Wire Line
	2900 2300 2900 2450
Wire Wire Line
	3150 1850 3150 2000
Wire Wire Line
	3150 2300 3150 2450
Wire Wire Line
	3450 1850 3450 2000
Wire Wire Line
	3450 2300 3450 2450
Text GLabel 2000 1950 0    50   Input ~ 0
Vin
$Comp
L power:GND #PWR06
U 1 1 60BADF0D
P 2000 2750
F 0 "#PWR06" H 2000 2500 50  0001 C CNN
F 1 "GND" H 2005 2577 50  0000 C CNN
F 2 "" H 2000 2750 50  0001 C CNN
F 3 "" H 2000 2750 50  0001 C CNN
	1    2000 2750
	1    0    0    -1  
$EndComp
Connection ~ 3150 2750
Wire Wire Line
	3150 2750 3450 2750
Wire Wire Line
	2900 2750 3150 2750
$Comp
L Device:LED D8
U 1 1 60BA8ACB
P 3150 2600
F 0 "D8" V 3200 2500 50  0000 R CNN
F 1 "110" V 3100 2550 50  0000 R CNN
F 2 "LED_THT:LED_D1.8mm_W3.3mm_H2.4mm" H 3150 2600 50  0001 C CNN
F 3 "~" H 3150 2600 50  0001 C CNN
	1    3150 2600
	0    -1   -1   0   
$EndComp
$EndSCHEMATC
