EESchema Schematic File Version 4
EELAYER 30 0
EELAYER END
$Descr A4 11693 8268
encoding utf-8
Sheet 1 1
Title "Raspberry Pi Zero (W) uHAT Template Board"
Date "2019-02-28"
Rev "1.0"
Comp ""
Comment1 "This Schematic is licensed under MIT Open Source License."
Comment2 ""
Comment3 ""
Comment4 ""
$EndDescr
$Comp
L Connector_Generic:Conn_02x20_Odd_Even J1
U 1 1 5C77771F
P 7550 1900
F 0 "J1" H 7600 3017 50  0000 C CNN
F 1 "GPIO_CONNECTOR" H 7600 2926 50  0000 C CNN
F 2 "lib:PinSocket_2x20_P2.54mm_Vertical_Centered_Anchor" H 7550 1900 50  0001 C CNN
F 3 "~" H 7550 1900 50  0001 C CNN
	1    7550 1900
	1    0    0    -1  
$EndComp
$Comp
L power:GND #PWR06
U 1 1 5C777805
P 7150 3050
F 0 "#PWR06" H 7150 2800 50  0001 C CNN
F 1 "GND" H 7155 2877 50  0001 C CNN
F 2 "" H 7150 3050 50  0001 C CNN
F 3 "" H 7150 3050 50  0001 C CNN
	1    7150 3050
	1    0    0    -1  
$EndComp
$Comp
L power:GND #PWR08
U 1 1 5C777838
P 8050 3050
F 0 "#PWR08" H 8050 2800 50  0001 C CNN
F 1 "GND" H 8055 2877 50  0001 C CNN
F 2 "" H 8050 3050 50  0001 C CNN
F 3 "" H 8050 3050 50  0001 C CNN
	1    8050 3050
	1    0    0    -1  
$EndComp
Wire Wire Line
	7350 1400 7150 1400
Wire Wire Line
	7150 1400 7150 2200
Wire Wire Line
	7350 2200 7150 2200
Connection ~ 7150 2200
Wire Wire Line
	7150 2200 7150 2900
Wire Wire Line
	7350 2900 7150 2900
Connection ~ 7150 2900
Wire Wire Line
	7150 2900 7150 3050
Wire Wire Line
	7850 1200 8050 1200
Wire Wire Line
	8050 1200 8050 1600
Wire Wire Line
	7850 1600 8050 1600
Connection ~ 8050 1600
Wire Wire Line
	8050 1600 8050 1900
Wire Wire Line
	7850 1900 8050 1900
Connection ~ 8050 1900
Wire Wire Line
	7850 2400 8050 2400
Wire Wire Line
	8050 1900 8050 2400
Connection ~ 8050 2400
Wire Wire Line
	8050 2400 8050 2600
Wire Wire Line
	7850 2600 8050 2600
Connection ~ 8050 2600
Wire Wire Line
	8050 2600 8050 3050
$Comp
L power:+3.3V #PWR05
U 1 1 5C777AB0
P 7100 900
F 0 "#PWR05" H 7100 750 50  0001 C CNN
F 1 "+3.3V" H 7115 1073 50  0000 C CNN
F 2 "" H 7100 900 50  0001 C CNN
F 3 "" H 7100 900 50  0001 C CNN
	1    7100 900 
	1    0    0    -1  
$EndComp
Wire Wire Line
	7100 1000 7100 900 
Wire Wire Line
	7350 1800 7100 1800
Wire Wire Line
	7100 1800 7100 1000
Connection ~ 7100 1000
$Comp
L power:+5V #PWR09
U 1 1 5C777E01
P 8150 900
F 0 "#PWR09" H 8150 750 50  0001 C CNN
F 1 "+5V" H 8165 1073 50  0000 C CNN
F 2 "" H 8150 900 50  0001 C CNN
F 3 "" H 8150 900 50  0001 C CNN
	1    8150 900 
	1    0    0    -1  
$EndComp
Wire Wire Line
	7850 1000 8150 1000
Wire Wire Line
	8150 1000 8150 900 
Wire Wire Line
	7850 1100 8150 1100
Wire Wire Line
	8150 1100 8150 1000
Connection ~ 8150 1000
$Comp
L power:PWR_FLAG #FLG01
U 1 1 5C77824A
P 6700 900
F 0 "#FLG01" H 6700 975 50  0001 C CNN
F 1 "PWR_FLAG" H 6700 1074 50  0000 C CNN
F 2 "" H 6700 900 50  0001 C CNN
F 3 "~" H 6700 900 50  0001 C CNN
	1    6700 900 
	1    0    0    -1  
$EndComp
$Comp
L power:GND #PWR04
U 1 1 5C778504
P 6750 3150
F 0 "#PWR04" H 6750 2900 50  0001 C CNN
F 1 "GND" H 6755 2977 50  0001 C CNN
F 2 "" H 6750 3150 50  0001 C CNN
F 3 "" H 6750 3150 50  0001 C CNN
	1    6750 3150
	1    0    0    -1  
$EndComp
$Comp
L power:PWR_FLAG #FLG02
U 1 1 5C778511
P 6750 3100
F 0 "#FLG02" H 6750 3175 50  0001 C CNN
F 1 "PWR_FLAG" H 6750 3274 50  0000 C CNN
F 2 "" H 6750 3100 50  0001 C CNN
F 3 "~" H 6750 3100 50  0001 C CNN
	1    6750 3100
	1    0    0    -1  
$EndComp
Wire Wire Line
	6750 3100 6750 3150
Wire Notes Line
	8650 800  8650 1150
Wire Notes Line
	8650 1150 10500 1150
Wire Wire Line
	7100 1000 7350 1000
Wire Wire Line
	6700 1000 6700 900 
Wire Wire Line
	6700 1000 7100 1000
$Comp
L power:PWR_FLAG #FLG03
U 1 1 5C77CEFA
P 8500 900
F 0 "#FLG03" H 8500 975 50  0001 C CNN
F 1 "PWR_FLAG" H 8500 1074 50  0000 C CNN
F 2 "" H 8500 900 50  0001 C CNN
F 3 "~" H 8500 900 50  0001 C CNN
	1    8500 900 
	1    0    0    -1  
$EndComp
Wire Wire Line
	8150 1000 8500 1000
Wire Wire Line
	8500 900  8500 1000
Text Label 6400 1100 0    50   ~ 0
GPIO2_SDA1
Text Label 6400 1200 0    50   ~ 0
GPIO3_SCL1
Text Label 6400 1300 0    50   ~ 0
GPIO4_GPIO_GCLK
Text Label 6400 1500 0    50   ~ 0
GPIO17_GEN0
Text Label 6400 1600 0    50   ~ 0
GPIO27_GEN2
Text Label 6400 1700 0    50   ~ 0
GPIO22_GEN3
Text Label 6400 1900 0    50   ~ 0
GPIO10_SPI_MOSI
Wire Wire Line
	6300 1900 7350 1900
Wire Wire Line
	6300 2000 7350 2000
Wire Wire Line
	6300 2100 7350 2100
Wire Wire Line
	6300 2300 7350 2300
Wire Wire Line
	6300 2600 7350 2600
Wire Wire Line
	6300 2700 7350 2700
Wire Wire Line
	6300 2800 7350 2800
Wire Wire Line
	6300 1700 7350 1700
Wire Wire Line
	6300 1600 7350 1600
Wire Wire Line
	6300 1500 7350 1500
Wire Wire Line
	6300 1300 7350 1300
Wire Wire Line
	6300 1200 7350 1200
Wire Wire Line
	6300 1100 7350 1100
Text Label 6400 2000 0    50   ~ 0
GPIO9_SPI_MISO
Text Label 6400 2100 0    50   ~ 0
GPIO11_SPI_SCLK
Text Label 6400 2300 0    50   ~ 0
ID_SD
Text Label 6400 2400 0    50   ~ 0
GPIO5
Text Label 6400 2500 0    50   ~ 0
GPIO6
Text Label 6400 2600 0    50   ~ 0
GPIO13
Text Label 6400 2700 0    50   ~ 0
GPIO19
Text Label 6400 2800 0    50   ~ 0
GPIO26
NoConn ~ 6300 1100
NoConn ~ 6300 1200
NoConn ~ 6300 1300
NoConn ~ 6300 1500
NoConn ~ 6300 1600
NoConn ~ 6300 1700
NoConn ~ 6300 1900
NoConn ~ 6300 2000
NoConn ~ 6300 2100
NoConn ~ 6300 2300
NoConn ~ 6300 2400
NoConn ~ 6300 2500
NoConn ~ 6300 2600
NoConn ~ 6300 2700
NoConn ~ 6300 2800
Text Label 8200 1300 0    50   ~ 0
GPIO14_TXD0
Text Label 8200 1400 0    50   ~ 0
GPIO15_RXD0
Text Label 8200 1500 0    50   ~ 0
GPIO18_GEN1
Text Label 8200 1700 0    50   ~ 0
GPIO23_GEN4
Text Label 8200 1800 0    50   ~ 0
GPIO24_GEN5
Text Label 8200 2000 0    50   ~ 0
GPIO25_GEN6
Text Label 8200 2100 0    50   ~ 0
GPIO8_SPI_CE0_N
Text Label 8200 2200 0    50   ~ 0
GPIO7_SPI_CE1_N
Wire Wire Line
	7850 2100 8900 2100
Wire Wire Line
	7850 2200 8900 2200
Text Label 8200 2300 0    50   ~ 0
ID_SC
Text Label 8200 2500 0    50   ~ 0
GPIO12
Text Label 8200 2700 0    50   ~ 0
GPIO16
Text Label 8200 2800 0    50   ~ 0
GPIO20
Text Label 8200 2900 0    50   ~ 0
GPIO21
Wire Wire Line
	7850 1300 8900 1300
Wire Wire Line
	7850 1400 8900 1400
Wire Wire Line
	7850 1500 8900 1500
Wire Wire Line
	7850 1700 8900 1700
Wire Wire Line
	7850 1800 8900 1800
Wire Wire Line
	7850 2000 8900 2000
Wire Wire Line
	7850 2300 8900 2300
Wire Wire Line
	7850 2500 8900 2500
Wire Wire Line
	7850 2700 8900 2700
Wire Wire Line
	7850 2800 8900 2800
NoConn ~ 8900 1300
NoConn ~ 8900 1400
NoConn ~ 8900 1500
NoConn ~ 8900 1700
NoConn ~ 8900 1800
NoConn ~ 8900 2000
NoConn ~ 8900 2100
NoConn ~ 8900 2200
NoConn ~ 8900 2300
NoConn ~ 8900 2500
NoConn ~ 8900 2700
NoConn ~ 8900 2800
NoConn ~ 8900 2900
Wire Wire Line
	7850 2900 8900 2900
$Comp
L Mechanical:MountingHole H1
U 1 1 5C7C4C81
P 10550 1550
F 0 "H1" H 10650 1596 50  0000 L CNN
F 1 "MountingHole" H 10650 1505 50  0000 L CNN
F 2 "lib:MountingHole_2.7mm_M2.5_uHAT_RPi" H 10550 1550 50  0001 C CNN
F 3 "~" H 10550 1550 50  0001 C CNN
	1    10550 1550
	1    0    0    -1  
$EndComp
$Comp
L Mechanical:MountingHole H2
U 1 1 5C7C7FBC
P 10550 1750
F 0 "H2" H 10650 1796 50  0000 L CNN
F 1 "MountingHole" H 10650 1705 50  0000 L CNN
F 2 "lib:MountingHole_2.7mm_M2.5_uHAT_RPi" H 10550 1750 50  0001 C CNN
F 3 "~" H 10550 1750 50  0001 C CNN
	1    10550 1750
	1    0    0    -1  
$EndComp
$Comp
L Mechanical:MountingHole H3
U 1 1 5C7C8014
P 10550 1950
F 0 "H3" H 10650 1996 50  0000 L CNN
F 1 "MountingHole" H 10650 1905 50  0000 L CNN
F 2 "lib:MountingHole_2.7mm_M2.5_uHAT_RPi" H 10550 1950 50  0001 C CNN
F 3 "~" H 10550 1950 50  0001 C CNN
	1    10550 1950
	1    0    0    -1  
$EndComp
$Comp
L Mechanical:MountingHole H4
U 1 1 5C7C8030
P 10550 2150
F 0 "H4" H 10650 2196 50  0000 L CNN
F 1 "MountingHole" H 10650 2105 50  0000 L CNN
F 2 "lib:MountingHole_2.7mm_M2.5_uHAT_RPi" H 10550 2150 50  0001 C CNN
F 3 "~" H 10550 2150 50  0001 C CNN
	1    10550 2150
	1    0    0    -1  
$EndComp
Wire Wire Line
	5700 2400 7350 2400
Wire Wire Line
	1150 4650 1650 4650
Wire Wire Line
	1150 4450 1150 4650
Wire Wire Line
	1650 4450 1650 4650
Wire Wire Line
	4000 4450 4000 4650
Wire Wire Line
	1650 4150 1150 4150
$Comp
L Device:C C?
U 1 1 60CCF393
P 4000 4300
AR Path="/60BA3338/60CCF393" Ref="C?"  Part="1" 
AR Path="/60CCF393" Ref="C4"  Part="1" 
F 0 "C4" H 4115 4346 50  0000 L CNN
F 1 "100nF" H 4115 4255 50  0000 L CNN
F 2 "Capacitor_THT:CP_Radial_D4.0mm_P1.50mm" H 4038 4150 50  0001 C CNN
F 3 "~" H 4000 4300 50  0001 C CNN
	1    4000 4300
	1    0    0    -1  
$EndComp
$Comp
L Device:CP C?
U 1 1 60CCF38D
P 1150 4300
AR Path="/60BA3338/60CCF38D" Ref="C?"  Part="1" 
AR Path="/60CCF38D" Ref="C1"  Part="1" 
F 0 "C1" H 1268 4346 50  0000 L CNN
F 1 "220uf" H 1268 4255 50  0000 L CNN
F 2 "Capacitor_THT:CP_Radial_D4.0mm_P1.50mm" H 1188 4150 50  0001 C CNN
F 3 "~" H 1150 4300 50  0001 C CNN
	1    1150 4300
	1    0    0    -1  
$EndComp
$Comp
L Device:C C?
U 1 1 60CCF381
P 1650 4300
AR Path="/60BA3338/60CCF381" Ref="C?"  Part="1" 
AR Path="/60CCF381" Ref="C2"  Part="1" 
F 0 "C2" H 1765 4346 50  0000 L CNN
F 1 "100nF" H 1765 4255 50  0000 L CNN
F 2 "Capacitor_THT:CP_Radial_D4.0mm_P1.50mm" H 1688 4150 50  0001 C CNN
F 3 "~" H 1650 4300 50  0001 C CNN
	1    1650 4300
	1    0    0    -1  
$EndComp
Wire Notes Line
	10500 800  8650 800 
Wire Notes Line
	10500 1150 10500 800 
Text Notes 8700 1100 0    50   ~ 10
If back powering Pi with 5V \nNOTE that the Raspberry Pi 3B+ and Pi Zero \nand ZeroW do not include an input ZVD.
Connection ~ 1650 4150
Connection ~ 1650 4650
$Comp
L Regulator_Linear:LM7805_TO220 U?
U 1 1 60CCF37B
P 2500 4150
AR Path="/60BA3338/60CCF37B" Ref="U?"  Part="1" 
AR Path="/60CCF37B" Ref="U2"  Part="1" 
F 0 "U2" H 2500 4392 50  0000 C CNN
F 1 "LM7805_TO220" H 2500 4301 50  0000 C CNN
F 2 "Potentiometer_THT:Potentiometer_ACP_CA9-H5_Horizontal" H 2500 4375 50  0001 C CIN
F 3 "https://www.onsemi.cn/PowerSolutions/document/MC7800-D.PDF" H 2500 4100 50  0001 C CNN
	1    2500 4150
	1    0    0    -1  
$EndComp
$Comp
L Device:CP C?
U 1 1 60CCF387
P 3300 4300
AR Path="/60BA3338/60CCF387" Ref="C?"  Part="1" 
AR Path="/60CCF387" Ref="C3"  Part="1" 
F 0 "C3" H 3418 4346 50  0000 L CNN
F 1 "22uF" H 3418 4255 50  0000 L CNN
F 2 "Capacitor_THT:CP_Radial_D4.0mm_P1.50mm" H 3338 4150 50  0001 C CNN
F 3 "~" H 3300 4300 50  0001 C CNN
	1    3300 4300
	1    0    0    -1  
$EndComp
Wire Wire Line
	2200 4150 1650 4150
Wire Wire Line
	2800 4150 3300 4150
Connection ~ 3300 4150
Wire Wire Line
	3300 4150 4000 4150
Wire Wire Line
	2500 4450 2500 4650
Connection ~ 2500 4650
Wire Wire Line
	2500 4650 3300 4650
Wire Wire Line
	3300 4450 3300 4650
Connection ~ 3300 4650
Wire Wire Line
	3300 4650 4000 4650
Wire Wire Line
	1650 4650 2500 4650
$Comp
L power:GND #PWR?
U 1 1 60CCF3B1
P 2500 5000
AR Path="/60BA3338/60CCF3B1" Ref="#PWR?"  Part="1" 
AR Path="/60CCF3B1" Ref="#PWR03"  Part="1" 
F 0 "#PWR03" H 2500 4750 50  0001 C CNN
F 1 "GND" H 2505 4827 50  0000 C CNN
F 2 "" H 2500 5000 50  0001 C CNN
F 3 "" H 2500 5000 50  0001 C CNN
	1    2500 5000
	1    0    0    -1  
$EndComp
Wire Wire Line
	2500 4650 2500 5000
$Comp
L Device:R R?
U 1 1 60D449AF
P 8000 4300
AR Path="/60BA35AE/60D449AF" Ref="R?"  Part="1" 
AR Path="/60D449AF" Ref="R7"  Part="1" 
F 0 "R7" H 8070 4346 50  0000 L CNN
F 1 "470" H 8070 4255 50  0000 L CNN
F 2 "Resistor_THT:R_Axial_DIN0204_L3.6mm_D1.6mm_P1.90mm_Vertical" V 7930 4300 50  0001 C CNN
F 3 "~" H 8000 4300 50  0001 C CNN
	1    8000 4300
	1    0    0    -1  
$EndComp
$Comp
L Device:R R?
U 1 1 60D449B5
P 8300 4300
AR Path="/60BA35AE/60D449B5" Ref="R?"  Part="1" 
AR Path="/60D449B5" Ref="R8"  Part="1" 
F 0 "R8" H 8370 4346 50  0000 L CNN
F 1 "390" H 8370 4255 50  0000 L CNN
F 2 "Resistor_THT:R_Axial_DIN0204_L3.6mm_D1.6mm_P1.90mm_Vertical" V 8230 4300 50  0001 C CNN
F 3 "~" H 8300 4300 50  0001 C CNN
	1    8300 4300
	1    0    0    -1  
$EndComp
$Comp
L Device:R R?
U 1 1 60D449BB
P 8550 4300
AR Path="/60BA35AE/60D449BB" Ref="R?"  Part="1" 
AR Path="/60D449BB" Ref="R9"  Part="1" 
F 0 "R9" H 8620 4346 50  0000 L CNN
F 1 "330" H 8620 4255 50  0000 L CNN
F 2 "Resistor_THT:R_Axial_DIN0204_L3.6mm_D1.6mm_P1.90mm_Vertical" V 8480 4300 50  0001 C CNN
F 3 "~" H 8550 4300 50  0001 C CNN
	1    8550 4300
	1    0    0    -1  
$EndComp
$Comp
L Device:R R?
U 1 1 60D449C1
P 8800 4300
AR Path="/60BA35AE/60D449C1" Ref="R?"  Part="1" 
AR Path="/60D449C1" Ref="R10"  Part="1" 
F 0 "R10" H 8870 4346 50  0000 L CNN
F 1 "220" H 8870 4255 50  0000 L CNN
F 2 "Resistor_THT:R_Axial_DIN0204_L3.6mm_D1.6mm_P1.90mm_Vertical" V 8730 4300 50  0001 C CNN
F 3 "~" H 8800 4300 50  0001 C CNN
	1    8800 4300
	1    0    0    -1  
$EndComp
$Comp
L Device:R R?
U 1 1 60D449C7
P 9100 4300
AR Path="/60BA35AE/60D449C7" Ref="R?"  Part="1" 
AR Path="/60D449C7" Ref="R11"  Part="1" 
F 0 "R11" H 9170 4346 50  0000 L CNN
F 1 "100" H 9170 4255 50  0000 L CNN
F 2 "Resistor_THT:R_Axial_DIN0204_L3.6mm_D1.6mm_P1.90mm_Vertical" V 9030 4300 50  0001 C CNN
F 3 "~" H 9100 4300 50  0001 C CNN
	1    9100 4300
	1    0    0    -1  
$EndComp
$Comp
L Diode:1N47xxA D?
U 1 1 60D449CD
P 8000 3850
AR Path="/60BA35AE/60D449CD" Ref="D?"  Part="1" 
AR Path="/60D449CD" Ref="D1"  Part="1" 
F 0 "D1" V 7954 3930 50  0000 L CNN
F 1 "2.4" V 8045 3930 50  0000 L CNN
F 2 "Diode_THT:D_DO-15_P2.54mm_Vertical_AnodeUp" H 8000 3675 50  0001 C CNN
F 3 "https://www.vishay.com/docs/85816/1n4728a.pdf" H 8000 3850 50  0001 C CNN
	1    8000 3850
	0    1    1    0   
$EndComp
$Comp
L Diode:1N47xxA D?
U 1 1 60D449D3
P 8300 3850
AR Path="/60BA35AE/60D449D3" Ref="D?"  Part="1" 
AR Path="/60D449D3" Ref="D3"  Part="1" 
F 0 "D3" V 8254 3930 50  0000 L CNN
F 1 "4.8" V 8345 3930 50  0000 L CNN
F 2 "Diode_THT:D_DO-15_P2.54mm_Vertical_AnodeUp" H 8300 3675 50  0001 C CNN
F 3 "https://www.vishay.com/docs/85816/1n4728a.pdf" H 8300 3850 50  0001 C CNN
	1    8300 3850
	0    1    1    0   
$EndComp
$Comp
L Diode:1N47xxA D?
U 1 1 60D449D9
P 8550 3850
AR Path="/60BA35AE/60D449D9" Ref="D?"  Part="1" 
AR Path="/60D449D9" Ref="D5"  Part="1" 
F 0 "D5" V 8504 3930 50  0000 L CNN
F 1 "7.2" V 8595 3930 50  0000 L CNN
F 2 "Diode_THT:D_DO-15_P2.54mm_Vertical_AnodeUp" H 8550 3675 50  0001 C CNN
F 3 "https://www.vishay.com/docs/85816/1n4728a.pdf" H 8550 3850 50  0001 C CNN
	1    8550 3850
	0    1    1    0   
$EndComp
$Comp
L Diode:1N47xxA D?
U 1 1 60D449DF
P 8800 3850
AR Path="/60BA35AE/60D449DF" Ref="D?"  Part="1" 
AR Path="/60D449DF" Ref="D7"  Part="1" 
F 0 "D7" V 8754 3930 50  0000 L CNN
F 1 "9.6" V 8845 3930 50  0000 L CNN
F 2 "Diode_THT:D_DO-15_P2.54mm_Vertical_AnodeUp" H 8800 3675 50  0001 C CNN
F 3 "https://www.vishay.com/docs/85816/1n4728a.pdf" H 8800 3850 50  0001 C CNN
	1    8800 3850
	0    1    1    0   
$EndComp
$Comp
L Diode:1N47xxA D?
U 1 1 60D449E5
P 9100 3850
AR Path="/60BA35AE/60D449E5" Ref="D?"  Part="1" 
AR Path="/60D449E5" Ref="D9"  Part="1" 
F 0 "D9" V 9054 3930 50  0000 L CNN
F 1 "11" V 9145 3930 50  0000 L CNN
F 2 "Diode_THT:D_A-405_P2.54mm_Vertical_AnodeUp" H 9100 3675 50  0001 C CNN
F 3 "https://www.vishay.com/docs/85816/1n4728a.pdf" H 9100 3850 50  0001 C CNN
	1    9100 3850
	0    1    1    0   
$EndComp
$Comp
L Device:LED D?
U 1 1 60D449EB
P 8000 4750
AR Path="/60BA35AE/60D449EB" Ref="D?"  Part="1" 
AR Path="/60D449EB" Ref="D2"  Part="1" 
F 0 "D2" V 8039 4632 50  0000 R CNN
F 1 "90" V 7948 4632 50  0000 R CNN
F 2 "LED_THT:LED_D1.8mm_W3.3mm_H2.4mm" H 8000 4750 50  0001 C CNN
F 3 "~" H 8000 4750 50  0001 C CNN
	1    8000 4750
	0    -1   -1   0   
$EndComp
$Comp
L Device:LED D?
U 1 1 60D449F1
P 8300 4750
AR Path="/60BA35AE/60D449F1" Ref="D?"  Part="1" 
AR Path="/60D449F1" Ref="D4"  Part="1" 
F 0 "D4" V 8350 4650 50  0000 C CNN
F 1 "100" V 8250 4650 50  0000 C CNN
F 2 "LED_THT:LED_D1.8mm_W3.3mm_H2.4mm" H 8300 4750 50  0001 C CNN
F 3 "~" H 8300 4750 50  0001 C CNN
	1    8300 4750
	0    -1   -1   0   
$EndComp
$Comp
L Device:LED D?
U 1 1 60D449F7
P 9100 4750
AR Path="/60BA35AE/60D449F7" Ref="D?"  Part="1" 
AR Path="/60D449F7" Ref="D10"  Part="1" 
F 0 "D10" V 9150 4650 50  0000 R CNN
F 1 "175" V 9050 4700 50  0000 R CNN
F 2 "LED_THT:LED_D1.8mm_W3.3mm_H2.4mm" H 9100 4750 50  0001 C CNN
F 3 "~" H 9100 4750 50  0001 C CNN
	1    9100 4750
	0    -1   -1   0   
$EndComp
$Comp
L Device:LED D?
U 1 1 60D449FD
P 8550 4750
AR Path="/60BA35AE/60D449FD" Ref="D?"  Part="1" 
AR Path="/60D449FD" Ref="D6"  Part="1" 
F 0 "D6" V 8600 4700 50  0000 R CNN
F 1 "100" V 8500 4700 50  0000 R CNN
F 2 "LED_THT:LED_D1.8mm_W3.3mm_H2.4mm" H 8550 4750 50  0001 C CNN
F 3 "~" H 8550 4750 50  0001 C CNN
	1    8550 4750
	0    -1   -1   0   
$EndComp
Wire Wire Line
	7650 4900 8000 4900
Connection ~ 8000 4900
Wire Wire Line
	8000 4900 8300 4900
Connection ~ 8300 4900
Wire Wire Line
	8300 4900 8550 4900
Connection ~ 8550 4900
Wire Wire Line
	8550 3700 8800 3700
Connection ~ 8800 3700
Wire Wire Line
	8800 3700 9100 3700
Connection ~ 8550 3700
Connection ~ 8000 3700
Wire Wire Line
	8000 3700 8300 3700
Connection ~ 8300 3700
Wire Wire Line
	8300 3700 8550 3700
Wire Wire Line
	8000 4000 8000 4150
Wire Wire Line
	8000 4450 8000 4600
Wire Wire Line
	8300 4000 8300 4150
Wire Wire Line
	8300 4450 8300 4600
Wire Wire Line
	8550 4000 8550 4150
Wire Wire Line
	8550 4450 8550 4600
Wire Wire Line
	8800 4000 8800 4150
Wire Wire Line
	8800 4450 8800 4600
Wire Wire Line
	9100 4000 9100 4150
Wire Wire Line
	9100 4450 9100 4600
$Comp
L power:GND #PWR?
U 1 1 60D44A1E
P 7650 4900
AR Path="/60BA35AE/60D44A1E" Ref="#PWR?"  Part="1" 
AR Path="/60D44A1E" Ref="#PWR07"  Part="1" 
F 0 "#PWR07" H 7650 4650 50  0001 C CNN
F 1 "GND" H 7655 4727 50  0000 C CNN
F 2 "" H 7650 4900 50  0001 C CNN
F 3 "" H 7650 4900 50  0001 C CNN
	1    7650 4900
	1    0    0    -1  
$EndComp
Connection ~ 8800 4900
Wire Wire Line
	8800 4900 9100 4900
Wire Wire Line
	8550 4900 8800 4900
$Comp
L Device:LED D?
U 1 1 60D44A27
P 8800 4750
AR Path="/60BA35AE/60D44A27" Ref="D?"  Part="1" 
AR Path="/60D44A27" Ref="D8"  Part="1" 
F 0 "D8" V 8850 4650 50  0000 R CNN
F 1 "110" V 8750 4700 50  0000 R CNN
F 2 "LED_THT:LED_D1.8mm_W3.3mm_H2.4mm" H 8800 4750 50  0001 C CNN
F 3 "~" H 8800 4750 50  0001 C CNN
	1    8800 4750
	0    -1   -1   0   
$EndComp
NoConn ~ 2150 1200
NoConn ~ 2250 1200
NoConn ~ 4300 1300
NoConn ~ 4200 1300
Wire Wire Line
	1700 1600 1700 2900
Wire Wire Line
	1850 1600 1700 1600
Wire Wire Line
	3900 2900 3900 2500
Wire Wire Line
	3400 2650 3400 2500
Connection ~ 2050 1900
Wire Wire Line
	2050 1900 4100 1900
Wire Wire Line
	2050 1900 2050 1800
Connection ~ 2050 1100
Wire Wire Line
	4100 1100 4100 1300
Wire Wire Line
	2050 1100 4100 1100
Wire Wire Line
	2050 1100 1100 1100
Wire Wire Line
	2050 1200 2050 1100
Wire Wire Line
	1700 1400 1550 1400
Connection ~ 1700 1400
Wire Wire Line
	1850 1400 1700 1400
Wire Wire Line
	1700 850  1900 850 
Wire Wire Line
	1700 1400 1700 850 
Wire Wire Line
	2800 1500 2950 1500
Connection ~ 2800 1500
Wire Wire Line
	2800 850  2200 850 
Wire Wire Line
	2800 1500 2800 850 
Wire Wire Line
	4850 1600 4500 1600
Wire Wire Line
	4850 850  4850 1600
Wire Wire Line
	4250 850  4850 850 
Wire Wire Line
	3650 1500 3900 1500
Connection ~ 3650 1500
Wire Wire Line
	3650 850  3950 850 
Wire Wire Line
	3650 1500 3650 850 
Connection ~ 3900 1700
Wire Wire Line
	3400 1700 3400 2200
Wire Wire Line
	3900 1700 3400 1700
Wire Wire Line
	3900 1700 3900 2200
Wire Wire Line
	3250 1500 3650 1500
Wire Wire Line
	2450 1500 2800 1500
$Comp
L Device:R R?
U 1 1 60D2EA19
P 2050 850
AR Path="/60B9350F/60D2EA19" Ref="R?"  Part="1" 
AR Path="/60D2EA19" Ref="R2"  Part="1" 
F 0 "R2" V 1843 850 50  0000 C CNN
F 1 "3K" V 1934 850 50  0000 C CNN
F 2 "Resistor_THT:R_Axial_DIN0204_L3.6mm_D1.6mm_P1.90mm_Vertical" V 1980 850 50  0001 C CNN
F 3 "~" H 2050 850 50  0001 C CNN
	1    2050 850 
	0    1    1    0   
$EndComp
$Comp
L Device:R R?
U 1 1 60D2EA13
P 1400 1400
AR Path="/60B9350F/60D2EA13" Ref="R?"  Part="1" 
AR Path="/60D2EA13" Ref="R1"  Part="1" 
F 0 "R1" V 1193 1400 50  0000 C CNN
F 1 "22K" V 1284 1400 50  0000 C CNN
F 2 "Resistor_THT:R_Axial_DIN0204_L3.6mm_D1.6mm_P1.90mm_Vertical" V 1330 1400 50  0001 C CNN
F 3 "~" H 1400 1400 50  0001 C CNN
	1    1400 1400
	0    1    1    0   
$EndComp
$Comp
L Device:R R?
U 1 1 60D2EA0D
P 3400 2350
AR Path="/60B9350F/60D2EA0D" Ref="R?"  Part="1" 
AR Path="/60D2EA0D" Ref="R4"  Part="1" 
F 0 "R4" H 3470 2396 50  0000 L CNN
F 1 "300K" H 3470 2305 50  0000 L CNN
F 2 "Resistor_THT:R_Axial_DIN0204_L3.6mm_D1.6mm_P1.90mm_Vertical" V 3330 2350 50  0001 C CNN
F 3 "~" H 3400 2350 50  0001 C CNN
	1    3400 2350
	1    0    0    -1  
$EndComp
$Comp
L Device:R R?
U 1 1 60D2EA07
P 3900 2350
AR Path="/60B9350F/60D2EA07" Ref="R?"  Part="1" 
AR Path="/60D2EA07" Ref="R5"  Part="1" 
F 0 "R5" H 3970 2396 50  0000 L CNN
F 1 "100K" H 3970 2305 50  0000 L CNN
F 2 "Resistor_THT:R_Axial_DIN0204_L3.6mm_D1.6mm_P1.90mm_Vertical" V 3830 2350 50  0001 C CNN
F 3 "~" H 3900 2350 50  0001 C CNN
	1    3900 2350
	1    0    0    -1  
$EndComp
$Comp
L Device:R R?
U 1 1 60D2EA01
P 4100 850
AR Path="/60B9350F/60D2EA01" Ref="R?"  Part="1" 
AR Path="/60D2EA01" Ref="R6"  Part="1" 
F 0 "R6" V 3893 850 50  0000 C CNN
F 1 "100K" V 3984 850 50  0000 C CNN
F 2 "Resistor_THT:R_Axial_DIN0204_L3.6mm_D1.6mm_P1.90mm_Vertical" V 4030 850 50  0001 C CNN
F 3 "~" H 4100 850 50  0001 C CNN
	1    4100 850 
	0    1    1    0   
$EndComp
$Comp
L Device:R R?
U 1 1 60D2E9FB
P 3100 1500
AR Path="/60B9350F/60D2E9FB" Ref="R?"  Part="1" 
AR Path="/60D2E9FB" Ref="R3"  Part="1" 
F 0 "R3" V 2893 1500 50  0000 C CNN
F 1 "100K" V 2984 1500 50  0000 C CNN
F 2 "Resistor_THT:R_Axial_DIN0204_L3.6mm_D1.6mm_P1.90mm_Vertical" V 3030 1500 50  0001 C CNN
F 3 "~" H 3100 1500 50  0001 C CNN
	1    3100 1500
	0    1    1    0   
$EndComp
$Comp
L Amplifier_Operational:LM741 U?
U 1 1 60D2E9F5
P 4200 1600
AR Path="/60B9350F/60D2E9F5" Ref="U?"  Part="1" 
AR Path="/60D2E9F5" Ref="U3"  Part="1" 
F 0 "U3" H 4544 1554 50  0000 L CNN
F 1 "LM741" H 4544 1645 50  0000 L CNN
F 2 "Package_LGA:LGA-8_3x5mm_P1.25mm" H 4250 1650 50  0001 C CNN
F 3 "http://www.ti.com/lit/ds/symlink/lm741.pdf" H 4350 1750 50  0001 C CNN
	1    4200 1600
	1    0    0    1   
$EndComp
$Comp
L Amplifier_Operational:LM741 U?
U 1 1 60D2E9EF
P 2150 1500
AR Path="/60B9350F/60D2E9EF" Ref="U?"  Part="1" 
AR Path="/60D2E9EF" Ref="U1"  Part="1" 
F 0 "U1" H 2494 1454 50  0000 L CNN
F 1 "LM741" H 2494 1545 50  0000 L CNN
F 2 "Package_LGA:LGA-8_3x5mm_P1.25mm" H 2200 1550 50  0001 C CNN
F 3 "http://www.ti.com/lit/ds/symlink/lm741.pdf" H 2300 1650 50  0001 C CNN
	1    2150 1500
	1    0    0    1   
$EndComp
Wire Wire Line
	4850 1600 5700 1600
Wire Wire Line
	5700 1600 5700 2400
Connection ~ 4850 1600
Wire Wire Line
	4650 2500 4650 4150
Wire Wire Line
	4650 4150 4000 4150
Wire Wire Line
	4650 2500 7350 2500
Connection ~ 4000 4150
Wire Wire Line
	6000 3700 6000 5750
Wire Wire Line
	6000 5750 950  5750
Wire Wire Line
	6000 3700 8000 3700
Wire Wire Line
	950  5750 950  4150
Wire Wire Line
	950  4150 1150 4150
Connection ~ 1150 4150
Wire Wire Line
	1250 1400 550  1400
Wire Wire Line
	550  1400 550  4150
Wire Wire Line
	550  4150 950  4150
Connection ~ 950  4150
Wire Wire Line
	950  1900 2050 1900
Wire Wire Line
	1350 2200 1100 2200
Wire Wire Line
	1100 2200 1100 1100
Wire Wire Line
	1800 2650 3400 2650
Wire Wire Line
	1700 2900 3900 2900
$Comp
L power:PWR_FLAG #FLG0101
U 1 1 60F2205C
P 700 3500
F 0 "#FLG0101" H 700 3575 50  0001 C CNN
F 1 "PWR_FLAG" H 700 3673 50  0000 C CNN
F 2 "" H 700 3500 50  0001 C CNN
F 3 "~" H 700 3500 50  0001 C CNN
	1    700  3500
	1    0    0    -1  
$EndComp
$Comp
L power:+3.3V #PWR0101
U 1 1 60F24700
P 2000 3450
F 0 "#PWR0101" H 2000 3300 50  0001 C CNN
F 1 "+3.3V" H 2015 3623 50  0000 C CNN
F 2 "" H 2000 3450 50  0001 C CNN
F 3 "" H 2000 3450 50  0001 C CNN
	1    2000 3450
	1    0    0    -1  
$EndComp
$Comp
L power:+5V #PWR0102
U 1 1 60F2A9F9
P 1450 3400
F 0 "#PWR0102" H 1450 3250 50  0001 C CNN
F 1 "+5V" H 1465 3573 50  0000 C CNN
F 2 "" H 1450 3400 50  0001 C CNN
F 3 "" H 1450 3400 50  0001 C CNN
	1    1450 3400
	1    0    0    -1  
$EndComp
$Comp
L power:-5V #PWR0103
U 1 1 60F2B44A
P 1050 3400
F 0 "#PWR0103" H 1050 3500 50  0001 C CNN
F 1 "-5V" H 1065 3573 50  0000 C CNN
F 2 "" H 1050 3400 50  0001 C CNN
F 3 "" H 1050 3400 50  0001 C CNN
	1    1050 3400
	1    0    0    -1  
$EndComp
Wire Wire Line
	1800 3450 2000 3450
Wire Wire Line
	1800 2650 1800 3450
Wire Wire Line
	2000 3450 2000 3650
Wire Wire Line
	2000 3650 1450 3650
Wire Wire Line
	700  3650 700  3500
Connection ~ 2000 3450
Wire Wire Line
	1050 3400 1050 3450
Connection ~ 1050 3650
Wire Wire Line
	1050 3650 700  3650
Connection ~ 1450 3650
Wire Wire Line
	1450 3650 1050 3650
Wire Wire Line
	950  3450 1050 3450
Wire Wire Line
	950  1900 950  3450
Connection ~ 1050 3450
Wire Wire Line
	1050 3450 1050 3650
Wire Wire Line
	1450 3400 1450 3450
Wire Wire Line
	1450 3450 1350 3450
Wire Wire Line
	1350 3450 1350 2200
Connection ~ 1450 3450
Wire Wire Line
	1450 3450 1450 3650
$Comp
L power:PWR_FLAG #FLG0102
U 1 1 60FAD289
P 550 6000
F 0 "#FLG0102" H 550 6075 50  0001 C CNN
F 1 "PWR_FLAG" H 550 6173 50  0000 C CNN
F 2 "" H 550 6000 50  0001 C CNN
F 3 "~" H 550 6000 50  0001 C CNN
	1    550  6000
	1    0    0    -1  
$EndComp
$Comp
L power:+12V #PWR0104
U 1 1 60FAD997
P 700 6100
F 0 "#PWR0104" H 700 5950 50  0001 C CNN
F 1 "+12V" H 715 6273 50  0000 C CNN
F 2 "" H 700 6100 50  0001 C CNN
F 3 "" H 700 6100 50  0001 C CNN
	1    700  6100
	1    0    0    -1  
$EndComp
Wire Wire Line
	550  6200 700  6200
Wire Wire Line
	700  6200 700  6100
Wire Wire Line
	550  6000 550  6200
Wire Wire Line
	700  6200 950  6200
Wire Wire Line
	950  6200 950  5750
Connection ~ 700  6200
Connection ~ 950  5750
$EndSCHEMATC
