"Source:","F:\EEE3088_Assignment\MicroHat\PiHat.sch"
"Date:","2021/06/18 12:02:14"
"Tool:","Eeschema (5.1.10)-1"
"Generator:","C:\Program Files\KiCad\bin\scripting\plugins/bom_csv_grouped_by_value.py"
"Component Count:","33"

"Individual Components:"

"Item","Qty","Reference(s)","Value","LibPart","Footprint","Datasheet"
"","","C1","220uf","Device:CP","Capacitor_THT:CP_Radial_D4.0mm_P1.50mm","~"
"","","C2","100nF","Device:C","Capacitor_THT:CP_Radial_D4.0mm_P1.50mm","~"
"","","C3","22uF","Device:CP","Capacitor_THT:CP_Radial_D4.0mm_P1.50mm","~"
"","","C4","100nF","Device:C","Capacitor_THT:CP_Radial_D4.0mm_P1.50mm","~"
"","","D1","2.4","Diode:1N47xxA","Diode_THT:D_DO-15_P2.54mm_Vertical_AnodeUp","https://www.vishay.com/docs/85816/1n4728a.pdf"
"","","D2","90","Device:LED","LED_THT:LED_D1.8mm_W3.3mm_H2.4mm","~"
"","","D3","4.8","Diode:1N47xxA","Diode_THT:D_DO-15_P2.54mm_Vertical_AnodeUp","https://www.vishay.com/docs/85816/1n4728a.pdf"
"","","D4","100","Device:LED","LED_THT:LED_D1.8mm_W3.3mm_H2.4mm","~"
"","","D5","7.2","Diode:1N47xxA","Diode_THT:D_DO-15_P2.54mm_Vertical_AnodeUp","https://www.vishay.com/docs/85816/1n4728a.pdf"
"","","D6","100","Device:LED","LED_THT:LED_D1.8mm_W3.3mm_H2.4mm","~"
"","","D7","9.6","Diode:1N47xxA","Diode_THT:D_DO-15_P2.54mm_Vertical_AnodeUp","https://www.vishay.com/docs/85816/1n4728a.pdf"
"","","D8","110","Device:LED","LED_THT:LED_D1.8mm_W3.3mm_H2.4mm","~"
"","","D9","11","Diode:1N47xxA","Diode_THT:D_A-405_P2.54mm_Vertical_AnodeUp","https://www.vishay.com/docs/85816/1n4728a.pdf"
"","","D10","175","Device:LED","LED_THT:LED_D1.8mm_W3.3mm_H2.4mm","~"
"","","H1","MountingHole","Mechanical:MountingHole","lib:MountingHole_2.7mm_M2.5_uHAT_RPi","~"
"","","H2","MountingHole","Mechanical:MountingHole","lib:MountingHole_2.7mm_M2.5_uHAT_RPi","~"
"","","H3","MountingHole","Mechanical:MountingHole","lib:MountingHole_2.7mm_M2.5_uHAT_RPi","~"
"","","H4","MountingHole","Mechanical:MountingHole","lib:MountingHole_2.7mm_M2.5_uHAT_RPi","~"
"","","J1","GPIO_CONNECTOR","Connector_Generic:Conn_02x20_Odd_Even","lib:PinSocket_2x20_P2.54mm_Vertical_Centered_Anchor","~"
"","","R1","22K","Device:R","Resistor_THT:R_Axial_DIN0204_L3.6mm_D1.6mm_P1.90mm_Vertical","~"
"","","R2","3K","Device:R","Resistor_THT:R_Axial_DIN0204_L3.6mm_D1.6mm_P1.90mm_Vertical","~"
"","","R3","100K","Device:R","Resistor_THT:R_Axial_DIN0204_L3.6mm_D1.6mm_P1.90mm_Vertical","~"
"","","R4","300K","Device:R","Resistor_THT:R_Axial_DIN0204_L3.6mm_D1.6mm_P1.90mm_Vertical","~"
"","","R5","100K","Device:R","Resistor_THT:R_Axial_DIN0204_L3.6mm_D1.6mm_P1.90mm_Vertical","~"
"","","R6","100K","Device:R","Resistor_THT:R_Axial_DIN0204_L3.6mm_D1.6mm_P1.90mm_Vertical","~"
"","","R7","470","Device:R","Resistor_THT:R_Axial_DIN0204_L3.6mm_D1.6mm_P1.90mm_Vertical","~"
"","","R8","390","Device:R","Resistor_THT:R_Axial_DIN0204_L3.6mm_D1.6mm_P1.90mm_Vertical","~"
"","","R9","330","Device:R","Resistor_THT:R_Axial_DIN0204_L3.6mm_D1.6mm_P1.90mm_Vertical","~"
"","","R10","220","Device:R","Resistor_THT:R_Axial_DIN0204_L3.6mm_D1.6mm_P1.90mm_Vertical","~"
"","","R11","100","Device:R","Resistor_THT:R_Axial_DIN0204_L3.6mm_D1.6mm_P1.90mm_Vertical","~"
"","","U1","LM741","Amplifier_Operational:LM741","Package_LGA:LGA-8_3x5mm_P1.25mm","http://www.ti.com/lit/ds/symlink/lm741.pdf"
"","","U2","LM7805_TO220","Regulator_Linear:LM7805_TO220","Potentiometer_THT:Potentiometer_ACP_CA9-H5_Horizontal","https://www.onsemi.cn/PowerSolutions/document/MC7800-D.PDF"
"","","U3","LM741","Amplifier_Operational:LM741","Package_LGA:LGA-8_3x5mm_P1.25mm","http://www.ti.com/lit/ds/symlink/lm741.pdf"



"Collated Components:"

"Item","Qty","Reference(s)","Value","LibPart","Footprint","Datasheet"
"1","1","C1","220uf","Device:CP","Capacitor_THT:CP_Radial_D4.0mm_P1.50mm","~"
"2","2","C2, C4","100nF","Device:C","Capacitor_THT:CP_Radial_D4.0mm_P1.50mm","~"
"3","1","C3","22uF","Device:CP","Capacitor_THT:CP_Radial_D4.0mm_P1.50mm","~"
"4","1","D1","2.4","Diode:1N47xxA","Diode_THT:D_DO-15_P2.54mm_Vertical_AnodeUp","https://www.vishay.com/docs/85816/1n4728a.pdf"
"5","1","D2","90","Device:LED","LED_THT:LED_D1.8mm_W3.3mm_H2.4mm","~"
"6","1","D3","4.8","Diode:1N47xxA","Diode_THT:D_DO-15_P2.54mm_Vertical_AnodeUp","https://www.vishay.com/docs/85816/1n4728a.pdf"
"7","2","D4, D6","100","Device:LED","LED_THT:LED_D1.8mm_W3.3mm_H2.4mm","~"
"8","1","D5","7.2","Diode:1N47xxA","Diode_THT:D_DO-15_P2.54mm_Vertical_AnodeUp","https://www.vishay.com/docs/85816/1n4728a.pdf"
"9","1","D7","9.6","Diode:1N47xxA","Diode_THT:D_DO-15_P2.54mm_Vertical_AnodeUp","https://www.vishay.com/docs/85816/1n4728a.pdf"
"10","1","D8","110","Device:LED","LED_THT:LED_D1.8mm_W3.3mm_H2.4mm","~"
"11","1","D9","11","Diode:1N47xxA","Diode_THT:D_A-405_P2.54mm_Vertical_AnodeUp","https://www.vishay.com/docs/85816/1n4728a.pdf"
"12","1","D10","175","Device:LED","LED_THT:LED_D1.8mm_W3.3mm_H2.4mm","~"
"13","4","H1, H2, H3, H4","MountingHole","Mechanical:MountingHole","lib:MountingHole_2.7mm_M2.5_uHAT_RPi","~"
"14","1","J1","GPIO_CONNECTOR","Connector_Generic:Conn_02x20_Odd_Even","lib:PinSocket_2x20_P2.54mm_Vertical_Centered_Anchor","~"
"15","1","R1","22K","Device:R","Resistor_THT:R_Axial_DIN0204_L3.6mm_D1.6mm_P1.90mm_Vertical","~"
"16","1","R2","3K","Device:R","Resistor_THT:R_Axial_DIN0204_L3.6mm_D1.6mm_P1.90mm_Vertical","~"
"17","3","R3, R5, R6","100K","Device:R","Resistor_THT:R_Axial_DIN0204_L3.6mm_D1.6mm_P1.90mm_Vertical","~"
"18","1","R4","300K","Device:R","Resistor_THT:R_Axial_DIN0204_L3.6mm_D1.6mm_P1.90mm_Vertical","~"
"19","1","R7","470","Device:R","Resistor_THT:R_Axial_DIN0204_L3.6mm_D1.6mm_P1.90mm_Vertical","~"
"20","1","R8","390","Device:R","Resistor_THT:R_Axial_DIN0204_L3.6mm_D1.6mm_P1.90mm_Vertical","~"
"21","1","R9","330","Device:R","Resistor_THT:R_Axial_DIN0204_L3.6mm_D1.6mm_P1.90mm_Vertical","~"
"22","1","R10","220","Device:R","Resistor_THT:R_Axial_DIN0204_L3.6mm_D1.6mm_P1.90mm_Vertical","~"
"23","1","R11","100","Device:R","Resistor_THT:R_Axial_DIN0204_L3.6mm_D1.6mm_P1.90mm_Vertical","~"
"24","2","U1, U3","LM741","Amplifier_Operational:LM741","Package_LGA:LGA-8_3x5mm_P1.25mm","http://www.ti.com/lit/ds/symlink/lm741.pdf"
"25","1","U2","LM7805_TO220","Regulator_Linear:LM7805_TO220","Potentiometer_THT:Potentiometer_ACP_CA9-H5_Horizontal","https://www.onsemi.cn/PowerSolutions/document/MC7800-D.PDF"
